{
    "items":[
        { "id":1, "image": "https://photo-resize-zmp3.zadn.vn/w94_r1x1_jpeg/cover/d/d/f/c/ddfc0c54f8c99b517539cc11c24f6b88.jpg" , "title": "Cướp đi cả thế giới", "author": "Bảo yến rosie, great", "time": "05:07", "view":"1M", "like":700},
        { "id":2, "image": "https://photo-resize-zmp3.zadn.vn/w94_r1x1_jpeg/cover/c/f/8/7/cf87ec212f04804d4799837e4ab26089.jpg" , "title": "Chỉ cần anh giả vờ", "author": "Chi dân ", "time": "04:15", "view":"1.5M", "like":500},
        { "id":3, "image": "https://photo-resize-zmp3.zadn.vn/w94_r1x1_jpeg/cover/2/e/f/f/2eff363ddedd24e5c180833b0059980a.jpg" , "title": "Nghĩa nhân tình thâm", "author": "lâm chấn khang", "time": "05:20", "view":"100", "like":100},
        { "id":4, "image": "https://photo-resize-zmp3.zadn.vn/w94_r1x1_jpeg/cover/f/0/4/a/f04a138e9179470e52a750b8e4190fad.jpg" , "title": "chẳng còn những ngày ấy", "author": "huy hiếu, vinz", "time": "04:58", "view":"1.6M", "like":700},
        { "id":5, "image": "https://photo-resize-zmp3.zadn.vn/w94_r1x1_jpeg/cover/b/d/f/1/bdf1fb9689b9412cf01b7cc265b22bbf.jpg" , "title": "không thể cùng nhau suốt kiếp", "author": "hòa minzy", "time": "05:12", "view":"1.7M", "like":700},
        { "id":6, "image": "https://photo-resize-zmp3.zadn.vn/w94_r1x1_jpeg/cover/0/0/8/a/008a5d5aa708f8fb041041e25db6b7d4.jpg" , "title": "khóc giữa trời mưa", "author": "cao thái sơn", "time": "05:50", "view":"1.8M", "like":700},
        { "id":7, "image": "https://photo-resize-zmp3.zadn.vn/w94_r1x1_jpeg/cover/c/0/c/b/c0cbcf26e675d698dc2446ed6d48a2b6.jpg" , "title": "Bạn Tình Ơi 2", "author": "Bảo yến rosie, great", "time": "05:07", "view":"1M", "like":700},
        { "id":8, "image": "https://photo-resize-zmp3.zadn.vn/w94_r1x1_jpeg/cover/6/2/7/7/6277052e09fdb5094c84366d00eb3165.jpg" , "title": "Em Khác Gì Hoa", "author": "Bảo yến rosie, great", "time": "05:07", "view":"1M", "like":700},
        { "id":9, "image": "https://photo-resize-zmp3.zadn.vn/w94_r1x1_jpeg/cover/0/3/1/a/031ab4e03889f6251f2ab1ad9a10ef47.jpg" , "title": "Xin Lỗi Vì Đã Gặp Nhau Lúc Đầu", "author": "Bảo yến rosie, great", "time": "05:07", "view":"1M", "like":700},
        { "id":10, "image": "https://photo-resize-zmp3.zadn.vn/w94_r1x1_jpeg/cover/f/6/a/b/f6ab94cda33ac9c190a7ac8cd0315270.jpg" , "title": "Tình Anh", "author": "Bảo yến rosie, great", "time": "05:07", "view":"1M", "like":700},
        { "id":11, "image": "https://photo-resize-zmp3.zadn.vn/w94_r1x1_jpeg/cover/1/b/d/8/1bd8cec0a4414e35ebdf196173b7ddcb.jpg" , "title": "Chán! Làm Lại", "author": "Bảo yến rosie, great", "time": "05:07", "view":"1M", "like":700}
    ]
}